Get Started with glyclean • glyclean
…
exp <- real_experiment |>
  mutate_obs(batch = factor(rep(c("A", "B", "C"), 4)))
exp
#> 
#> ── Glycoproteomics Experiment ──────────────────────────────────────────────────
#> ℹ Expression matrix: 12 samples, 4262 variables
#> ℹ Sample information fields: group <fct>, batch <fct>
#> ℹ Variable information fields: peptide <chr>, peptide_site <int>, protein <chr>, protein_site <int>, gene <chr>, glycan_composition <comp>, glycan_structure <struct>

Let’s peek under the hood and see what we’re working with:

get_var_info(exp)
#> # A tibble: 4,262 × 8
#>    variable   peptide peptide_site protein protein_site gene  glycan_composition
#>    <chr>      <chr>          <int> <chr>          <int> <chr> <comp>            
#>  1 P08185-N1… NKTQGK             1 P08185           176 SERP… Hex(5)HexNAc(4)Ne…
#>  2 P04196-N3… HSHNNN…            5 P04196           344 HRG   Hex(5)HexNAc(4)Ne…
#>  3 P04196-N3… HSHNNN…            5 P04196           344 HRG   Hex(5)HexNAc(4)   
#>  4 P04196-N3… HSHNNN…            5 P04196           344 HRG   Hex(5)HexNAc(4)Ne…
#>  5 P10909-N2… HNSTGC…            2 P10909           291 CLU   Hex(6)HexNAc(5)   
#>  6 P04196-N3… HSHNNN…            5 P04196           344 HRG   Hex(5)HexNAc(4)Ne…
#>  7 P04196-N3… HSHNNN…            6 P04196           345 HRG   Hex(5)HexNAc(4)   
#>  8 P04196-N3… HSHNNN…            5 P04196           344 HRG   Hex(5)HexNAc(4)dH…
#>  9 P04196-N3… HSHNNN…            5 P04196           344 HRG   Hex(4)HexNAc(3)   
#> 10 P04196-N3… HSHNNN…            5 P04196           344 HRG   Hex(4)HexNAc(4)Ne…
#> # ℹ 4,252 more rows
#> # ℹ 1 more variable: glycan_structure <struct>
…
